<?xml version="1.0" encoding="utf-8"?>
<!-- Generator: Adobe Illustrator 24.1.1, SVG Export Plug-In . SVG Version: 6.00 Build 0)  -->
<svg version="1.1" id="Layer_1" xmlns="http://www.w3.org/2000/svg" xmlns:xlink="http://www.w3.org/1999/xlink" x="0px" y="0px"
	 viewBox="0 0 512 512" style="enable-background:new 0 0 512 512;" xml:space="preserve">
<style type="text/css">
	.st0{fill-rule:evenodd;clip-rule:evenodd;}
</style>
<g>
	<path class="st0" d="M59.1,0C26.4,0,0,26.4,0,59.1v315.1c0,32.6,26.4,59.1,59.1,59.1h157.5c10.9,0,19.7-8.8,19.7-19.7
		s-8.8-19.7-19.7-19.7H59.1c-10.9,0-19.7-8.8-19.7-19.7V59.1c0-10.9,8.8-19.7,19.7-19.7h315.1c10.9,0,19.7,8.8,19.7,19.7v157.5
		c0,10.9,8.8,19.7,19.7,19.7s19.7-8.8,19.7-19.7V59.1c0-32.6-26.5-59.1-59.1-59.1H59.1z M492.3,275.7c10.9,0,19.7,8.8,19.7,19.7
		v196.9c0,10.9-8.8,19.7-19.7,19.7H295.4c-10.9,0-19.7-8.8-19.7-19.7s8.8-19.7,19.7-19.7h177.2V295.4
		C472.6,284.5,481.4,275.7,492.3,275.7z"/>
	<path class="st0" d="M506.2,506.2c-7.7,7.7-20.1,7.7-27.8,0.1l0-0.1L163.3,191.1c-7.7-7.7-7.7-20.2,0-27.9s20.2-7.7,27.9,0
		l315.1,315.1C513.9,486,513.9,498.5,506.2,506.2L506.2,506.2z"/>
</g>
</svg>
